<svg id="svg2" xmlns="http://www.w3.org/2000/svg" width="112" height="56" viewBox="0 0 505.12 178.77"><defs>
<style>.cls-1{fill:#ff0092;}.cls-2{fill:#00cf21;}.cls-3{fill:#7f3cc6;}.cls-4{fill:#0099ea;}.cls-5{fill:#ffcb21;}.cls-6{fill:#1e1944;}
</style></defs><title>logo-stix-white-0</title><g id="g10"><g id="g12"><g id="g14">
<g id="g20"><path id="path22" class="cls-1" d="M54.17,13.93a10.12,10.12,0,0,0-20.23,0V91.39l20.23-9.21Z"/>
</g><g id="g24"><path id="path26" class="cls-1" d="M33.94,130.64a10.12,10.12,0,0,0,20.23,0V104.08l-20.23,9.2Z"/></g><g id="g28">
<path id="path30" class="cls-2" d="M91.33,13.93a10.12,10.12,0,0,0-20.23,0V74.48l20.23-9.2Z"/></g><g id="g32">
<path id="path34" class="cls-2" d="M71.1,130.64a10.12,10.12,0,0,0,20.23,0V87.17L71.1,96.38Z"/></g><g id="g36">
<path id="path38" class="cls-3" d="M108.26,130.64a10.12,10.12,0,0,0,20.23,0V70.27l-20.23,9.2Z"/></g><g id="g40">
<path id="path42" class="cls-3" d="M128.49,13.93a10.12,10.12,0,0,0-20.23,0V57.58l20.23-9.21Z"/></g><g id="g44">
<path id="path46" class="cls-4" d="M145.42,130.64a10.12,10.12,0,0,0,20.23,0V53.36l-20.23,9.2Z"/></g><g id="g48">
<path id="path50" class="cls-4" d="M165.65,13.93a10.12,10.12,0,0,0-20.23,0V40.67l20.23-9.21Z"/></g><g id="g52">
<path id="path54" class="cls-5" d="M194.61,29.24a10.19,10.19,0,0,0-13.43-4.84l-15.53,7.06-20.23,9.21-16.93,7.7-20.23,9.21-16.93,7.7L71.1,74.48l-16.93,7.7L33.94,91.39l-23.73,10.8a9.86,9.86,0,0,0-4.93,13.19,10.19,10.19,0,0,0,13.43,4.83l15.23-6.93,20.23-9.2,16.93-7.7,20.23-9.21,16.93-7.7,20.23-9.21,16.93-7.7,20.23-9.2,24-10.94a9.86,9.86,0,0,0,4.93-13.18"/></g><g id="g56"><path id="path58" class="cls-6" d="M211,167.6q-6-3.57-6-10.15a8.87,8.87,0,0,1,2.06-6.1A6.5,6.5,0,0,1,212.1,149c2.12,0,5.07,1,8.83,3a83.37,83.37,0,0,0,11,4.33,44.89,44.89,0,0,0,12.69,1.5q7.89,0,12.31-2.63a8.16,8.16,0,0,0,4.41-7.33,7,7,0,0,0-1.78-5.07q-1.79-1.89-6.39-3.48a136.16,136.16,0,0,0-14-3.67q-16.74-3.37-24-9.58T208,109A24.67,24.67,0,0,1,212.85,94a31.57,31.57,0,0,1,13.43-10.34A49,49,0,0,1,245.74,80,58.12,58.12,0,0,1,261,82a46.56,46.56,0,0,1,13.15,5.73q6,3.76,6,10a9.63,9.63,0,0,1-2.07,6.3,6.32,6.32,0,0,1-5.08,2.53,10.23,10.23,0,0,1-4-.84,54.18,54.18,0,0,1-5-2.54,78.59,78.59,0,0,0-9.39-4.23,29.3,29.3,0,0,0-9.77-1.41q-7,0-11,2.82a8.92,8.92,0,0,0-4,7.71,7.82,7.82,0,0,0,4.14,7.14q4.13,2.44,16,4.89,12.58,2.63,19.73,6t10.24,8.46q3.11,5.07,3.1,13,0,12.8-10.61,20.49T244,175.68q-20.47,0-33.07-8.08"/></g><g id="g60"><path id="path62" class="cls-6" d="M358.12,166.29a7.67,7.67,0,0,1-3.67,6.86q-3.66,2.34-10.43,2l-5.07-.38q-31.57-2.25-31.57-33.82V100H298c-3.38,0-6-.75-7.8-2.26a8,8,0,0,1-2.73-6.58,8,8,0,0,1,2.73-6.57C292,83,294.6,82.28,298,82.28h9.4V65a10.57,10.57,0,0,1,3.19-8.08,12.12,12.12,0,0,1,8.64-3,11.86,11.86,0,0,1,8.46,3,10.58,10.58,0,0,1,3.2,8.08V82.28h16q5.07,0,7.8,2.26a8,8,0,0,1,2.72,6.57,8.05,8.05,0,0,1-2.72,6.58q-2.73,2.27-7.8,2.26h-16v42.66q0,13.9,12.77,14.84l5.08.38q9.39.55,9.4,8.46"/></g><g id="g64"><path id="path66" class="cls-6" d="M373.62,172.39c-2.2-1.94-3.29-4.72-3.29-8.36V91.49c0-3.63,1.09-6.39,3.29-8.27A12.39,12.39,0,0,1,382,80.4a12.78,12.78,0,0,1,8.46,2.82q3.38,2.82,3.38,8.27V164c0,3.64-1.13,6.42-3.38,8.36a12.54,12.54,0,0,1-8.46,2.92,12.15,12.15,0,0,1-8.36-2.92M371.83,60.2a11.83,11.83,0,0,1-3.76-9.11,11.52,11.52,0,0,1,3.76-9q3.76-3.39,10.15-3.39a14.64,14.64,0,0,1,10,3.39,11.4,11.4,0,0,1,3.86,9,11.86,11.86,0,0,1-3.76,9.11q-3.76,3.48-10.15,3.48T371.83,60.2"/></g><g id="g68"><path id="path70" class="cls-6" d="M501.13,164.59a10.4,10.4,0,0,1-3.2,7.43,10.15,10.15,0,0,1-7.52,3.29,10.33,10.33,0,0,1-8.08-3.95L455.84,142l-26.5,29.32a10.89,10.89,0,0,1-8.08,3.76,11,11,0,0,1-10.53-10.53,10.59,10.59,0,0,1,3.39-7.7L441.55,127,415.62,98.82a10.6,10.6,0,0,1-3.38-7.71,10,10,0,0,1,3.19-7.42,10.21,10.21,0,0,1,7.33-3.1,10.88,10.88,0,0,1,8.08,3.76l25,27.44,25-27.44a10.88,10.88,0,0,1,8.08-3.76,10.58,10.58,0,0,1,10.52,10.52,10.6,10.6,0,0,1-3.38,7.71L470.12,127l27.62,29.88a10.59,10.59,0,0,1,3.39,7.7"/></g></g></g></g></svg>
